<svg xmlns="http://www.w3.org/2000/svg" xmlns:xlink="http://www.w3.org/1999/xlink" width="154" height="89" viewBox="0 0 154 89">
  <metadata><?xpacket begin="﻿" id="W5M0MpCehiHzreSzNTczkc9d"?>
<x:xmpmeta xmlns:x="adobe:ns:meta/" x:xmptk="Adobe XMP Core 5.6-c138 79.159824, 2016/09/14-01:09:01        ">
   <rdf:RDF xmlns:rdf="http://www.w3.org/1999/02/22-rdf-syntax-ns#">
      <rdf:Description rdf:about=""/>
   </rdf:RDF>
</x:xmpmeta>
                                                                                                    
                                                                                                    
                                                                                                    
                                                                                                    
                                                                                                    
                                                                                                    
                                                                                                    
                                                                                                    
                                                                                                    
                                                                                                    
                                                                                                    
                                                                                                    
                                                                                                    
                                                                                                    
                                                                                                    
                                                                                                    
                                                                                                    
                                                                                                    
                                                                                                    
                                                                                                    
                           
<?xpacket end="w"?></metadata>
<defs>
    <style>
      .cls-1 {
        fill: #fff;
        fill-rule: evenodd;
        filter: url(#filter);
      }
    </style>
    <filter id="filter" x="480" y="1607" width="154" height="89" filterUnits="userSpaceOnUse">
      <feGaussianBlur result="blur" stdDeviation="10" in="SourceAlpha"/>
      <feComposite result="composite"/>
      <feComposite result="composite-2"/>
      <feComposite result="composite-3"/>
      <feFlood result="flood" flood-color="#fff" flood-opacity="0.4"/>
      <feComposite result="composite-4" operator="in" in2="composite-3"/>
      <feBlend result="blend" in2="SourceGraphic"/>
      <feBlend result="blend-2" in="SourceGraphic"/>
    </filter>
  </defs>
  <path id="Icon_Star_Full" data-name="Icon Star Full" class="cls-1" d="M524,1635.99l4.64,9.88,10.363,1.59-7.5,7.68,1.767,10.86-9.268-5.13-9.277,5.13,1.775-10.86-7.5-7.68,10.371-1.59Zm33,0,4.64,9.88,10.363,1.59-7.5,7.68,1.767,10.86-9.268-5.13-9.277,5.13,1.775-10.86-7.5-7.68,10.371-1.59Zm32,0,4.64,9.88,10.363,1.59-7.5,7.68,1.767,10.86-9.268-5.13-9.277,5.13,1.775-10.86-7.5-7.68,10.371-1.59Z" transform="translate(-480 -1607)"/>
</svg>
